good,1
case,1
excellent,1
value,1
great,1
jawbone,1
mic,1
great,1
razr,1
owneryou,1
must,1
sound,1
quality,1
great,1
impressed,1
going,1
original,1
battery,1
extended,1
battery,1
good,1
quality,1
though,1
highly,1
recommend,1
one,1
blue,1
tooth,1
phone,1
far,1
good,1
works,1
great,1
bought,1
use,1
kindle,1
fire,1
absolutely,1
loved,1
yet,1
run,1
new,1
battery,1
two,1
bars,1
thats,1
three,1
days,1
without,1
charging,1
great,1
pocket,1
pc,1
phone,1
combination,1
ive,1
owned,1
phone,1
7,1
months,1
say,1
best,1
mobile,1
phone,1
ive,1
product,1
ideal,1
people,1
like,1
whose,1
ears,1
sensitive,1
car,1
charger,1
well,1
ac,1
charger,1
included,1
make,1
sure,1
never,1
run,1
juicehighy,1
recommended,1
kept,1
well,1
case,1
great,1
works,1
fine,1
680,1
great,1
camera,1
thats,1
2mp,1
pics,1
nice,1
clear,1
great,1
picture,1
quality,1
nice,1
headset,1
priced,1
right,1
excellent,1
bluetooth,1
headset,1
features,1
want,1
case,1
seems,1
well,1
made,1
good,1
protection,1
make,1
phone,1
bulky,1
usable,1
keyboard,1
actually,1
turns,1
pda,1
realworld,1
useful,1
machine,1
instead,1
neat,1
gadget,1
phone,1
pretty,1
sturdy,1
ive,1
never,1
large,1
problems,1
love,1
thing,1
everything,1
fine,1
reasonable,1
price,1
ie,1
even,1
dropped,1
phone,1
stream,1
submerged,1
15,1
seconds,1
still,1
works,1
great,1
happy,1
510,1
complaints,1
one,1
regarding,1
sound,1
quality,1
end,1
really,1
recommend,1
faceplates,1
since,1
looks,1
nice,1
elegant,1
cool,1
headphones,1
great,1
find,1
think,1
perhaps,1
best,1
purchase,1
ive,1
made,1
last,1
several,1
years,1
seriously,1
feels,1
comfortable,1
headsets,1
wear,1
glasses,1
gets,1
way,1
sometimes,1
great,1
ipods,1
device,1
great,1
several,1
situations1,1
great,1
choice,1
nice,1
docking,1
station,1
home,1
work,1
beautiful,1
phone,1
love,1
product,1
great,1
little,1
item,1
love,1
phone,1
handy,1
lot,1
features,1
wear,1
everyday,1
holds,1
well,1
well,1
packaged,1
arrived,1
time,1
works,1
intended,1
headsets,1
easy,1
use,1
everyone,1
loves,1
phone,1
works,1
great,1
product,1
excellent,1
works,1
better,1
verizon,1
one,1
boy,1
cheaper,1
phone,1
loads,1
super,1
made,1
sturdy,1
worked,1
great,1
order,1
best,1
ive,1
found,1
far,1
ive,1
tried,1
2,1
bluetooths,1
one,1
best,1
quality,1
listener,1
well,1
ease,1
using,1
integrated,1
seamlessly,1
motorola,1
razr,1
phone,1
definitely,1
bargain,1
price,1
good,1
free,1
shipping,1
good,1
purchase,1
prosgood,1
camera,1
nice,1
pictures,1
also,1
cool,1
styles,1
like,1
black,1
white,1
love,1
350,1
headset,1
jabra350,1
bluetooth,1
headset,1
great,1
reception,1
good,1
ear,1
piece,1
comfortable,1
fit,1
camera,1
although,1
rated,1
impressive,1
13,1
megapixels,1
renders,1
images,1
fall,1
well,1
expectations,1
relatively,1
high,1
resolution,1
sound,1
quality,1
end,1
excellent,1
use,1
headset,1
call,1
wife,1
ask,1
wife,1
use,1
headset,1
call,1
2,1
phone,1
slim,1
light,1
display,1
beautiful,1
little,1
geeky,1
think,1
thats,1
sex,1
toast,1
rocks,1
oozes,1
sex,1
right,1
battery,1
embedded,1
sleek,1
stylish,1
leather,1
case,1
great,1
product,1
fast,1
shipping,1
absolutely,1
great,1
keyboard,1
nice,1
compromise,1
full,1
qwerty,1
basic,1
cell,1
phone,1
number,1
keypad,1
comfortable,1
ear,1
winner,1
us,1
setup,1
couldnt,1
simpler,1
ive,1
tried,1
several,1
different,1
earpieces,1
cell,1
phone,1
jabra,1
one,1
first,1
one,1
ive,1
found,1
fits,1
ear,1
comfortably,1
iam,1
pleased,1
purchase,1
gets,1
job,1
done,1
great,1
audio,1
ive,1
bluetooth,1
weeks,1
really,1
like,1
small,1
dont,1
even,1
realize,1
getting,1
used,1
accompanied,1
software,1
almost,1
brilliant,1
headset,1
works,1
great,1
packaged,1
nicely,1
avoid,1
damage,1
definitly,1
recommend,1
good,1
stuff,1
price,1
headset,1
works,1
peachykeen,1
voice,1
recognition,1
tremendous,1
got,1
phone,1
reccomendation,1
relative,1
im,1
glad,1
absolutely,1
problem,1
headset,1
linking,1
8530,1
blackberry,1
curve,1
know,1
sounds,1
funny,1
seemed,1
like,1
sketchy,1
technology,1
wouldnt,1
work,1
wellwell,1
one,1
works,1
great,1
phone,1
fast,1
sending,1
kind,1
messages,1
web,1
browsing,1
significantly,1
faster,1
previous,1
phones,1
used,1
nice,1
quality,1
build,1
unlike,1
cheap,1
item,1
fantastic,1
works,1
perfectly,1
love,1
colors,1
w810i,1
superb,1
great,1
charger,1
works,1
like,1
charm,1
work,1
one,1
got,1
phone,1
great,1
value,1
look,1
sharp,1
screen,1
nice,1
clear,1
great,1
graphics,1
excellent,1
service,1
igo,1
chargers,1
tips,1
really,1
great,1
file,1
browser,1
offers,1
options,1
one,1
needshandsfree,1
great,1
superb,1
phone,1
great,1
network,1
connected,1
wifes,1
bluetoothmotorola,1
hs850,1
phone,1
worked,1
like,1
charm,1
whether,1
phone,1
pocket,1
case,1
put,1
latest,1
os,1
v115g,1
likes,1
slow,1
crawl,1
lock,1
every,1
sound,1
quality,1
good,1
functionality,1
awesome,1
recently,1
problems,1
could,1
stay,1
connected,1
10,1
minutes,1
disconnected,1
incredible,1
great,1
phone,1
waste,1
13,1
bucks,1
ring,1
toneoverall,1
good,1
phone,1
buy,1
lately,1
extremely,1
nice,1
helpful,1
phone,1
light,1
weight,1
hardly,1
notice,1
youll,1
love,1
thin,1
color,1
even,1
prettier,1
thought,1
would,1
graphics,1
incredibly,1
sharp,1
think,1
good,1
investment,1
best,1
electronics,1
available,1
fm,1
transmitters,1
great,1
headset,1
impressed,1
h500,1
12,1
mega,1
pixel,1
camera,1
part,1
phone,1
reasonably,1
good7,1
ive,1
nearly,1
2,1
years,1
worked,1
great,1
good,1
transmit,1
audio,1
great,1
price,1
also,1
range,1
decent,1
ive,1
able,1
roam,1
around,1
house,1
phone,1
living,1
room,1
receptionsound,1
quality,1
issues,1
fast,1
service,1
would,1
highly,1
recommend,1
would,1
recommend,1
im,1
still,1
infatuated,1
phone,1
simple,1
lightweight,1
great,1
fit,1
certainly,1
comfortable,1
functionality,1
decent,1
usually,1
dont,1
like,1
headbands,1
one,1
lightweight,1
doesnt,1
mess,1
hair,1
ordered,1
sony,1
ericsson,1
w810i,1
think,1
worked,1
thats,1
first,1
used,1
great,1
sound,1
service,1
really,1
pleased,1
product,1
far,1
one,1
favorite,1
purchases,1
ever,1
best,1
bluetooth,1
market,1
authentic,1
leather,1
nice,1
shine,1
comfort,1
recommend,1
case,1
excited,1
get,1
headset,1
thought,1
really,1
cute,1
worth,1
every,1
penny,1
excellent,1
wallet,1
type,1
phone,1
case,1
nice,1
headphones,1
price,1
work,1
great,1
comfortable,1
wear,1
well,1
probably,1
important,1
aspect,1
using,1
case,1
fits,1
like,1
glove,1
strong,1
secure,1
durable,1
o,1
gosh,1
best,1
phone,1
ever,1
attractive,1
appears,1
good,1
quality,1
love,1
features,1
form,1
factor,1
great,1
earpiece,1
excellent,1
hands,1
free,1
tool,1
great,1
using,1
home,1
stereo,1
good,1
product,1
incredible,1
value,1
month,1
worked,1
flawlessly,1
far,1
works,1
great,1
battery,1
life,1
real,1
good,1
great,1
item,1
love,1
headset,1
worked,1
perfectly,1
gave,1
5,1
stars,1
sound,1
quality,1
reversible,1
plug,1
works,1
great,1
good,1
phone,1
best,1
rotating,1
feature,1
helpful,1
comfort,1
whole,1
family,1
good,1
product,1
good,1
seller,1
love,1
bluetooth,1
impressed,1
headset,1
plantronics,1
got,1
small,1
adorable,1
great,1
phone,1
item,1
great,1
installed,1
let,1
charged,1
overnite,1
working,1
good,1
every,1
since,1
problems,1
great,1
phone,1
excellent,1
phone,1
voice,1
recognition,1
thru,1
handset,1
excellent,1
hands,1
best,1
phone,1
ive,1
ever,1
works,1
great,1
cat,1
attacked,1
phone,1
scratched,1
protective,1
strip,1
instead,1
destroying,1
screen,1
one,1
works,1
priced,1
right,1
know,1
made,1
wise,1
decision,1
someone,1
shouldve,1
invented,1
sooner,1
good,1
price,1
everything,1
worked,1
first,1
trythe,1
device,1
certainly,1
engineered,1
clever,1
way,1
construction,1
feels,1
good,1
received,1
quickly,1
works,1
great,1
working,1
great,1
5year,1
old,1
nokia,1
2160,1
tracfone,1
holds,1
charge,1
lot,1
better,1
good,1
battery,1
got,1
really,1
fast,1
also,1
slim,1
enough,1
fit,1
alarm,1
clock,1
docking,1
station,1
without,1
removing,1
case,1
phone,1
holds,1
charge,1
like,1
new,1
gotten,1
lot,1
compliments,1
definitely,1
must,1
state,1
allow,1
cell,1
phone,1
usage,1
driving,1
love,1
device,1
also,1
happy,1
price,1
able,1
voice,1
dialing,1
car,1
problem,1
good,1
item,1
low,1
price,1
comfortable,1
battery,1
working,1
well,1
replacement,1
original,1
came,1
phone,1
2,1
years,1
ago,1
reception,1
excellent,1
fits,1
comfortably,1
either,1
ear,1
sound,1
clear,1
loud,1
charge,1
lasts,1
couple,1
days,1
clear,1
quality,1
sound,1
dont,1
mess,1
sound,1
ipod,1
since,1
sound,1
buttons,1
headset,1
1,1
long,1
lasting,1
battery,1
dont,1
recharge,1
frequentyly,1
flip,1
phones2,1
excellent,1
sound,1
quality,1
new,1
battery,1
works,1
great,1
phone,1
ive,1
dropped,1
phone,1
times,1
say,1
even,1
concrete,1
phone,1
still,1
great,1
knock,1
wood,1
good,1
audio,1
quality,1
little,1
device,1
transformed,1
organizational,1
capability,1
made,1
life,1
whole,1
lot,1
easier,1
works,1
like,1
charm,1
works,1
advertised,1
comfortable,1
nice,1
range,1
good,1
battery,1
life,1
microphone,1
also,1
works,1
well,1
according,1
people,1
called,1
applifies,1
everything,1
nice,1
design,1
quality,1
light,1
easy,1
use,1
clear,1
reception,1
transmission,1
definitely,1
good,1
s11,1
awesome,1
device,1
ordered,1
motorola,1
data,1
cable,1
got,1
well,1
finished,1
working,1
product,1
love,1
phone,1
looking,1
headset,1
long,1
time,1
ive,1
got,1
couldnt,1
happier,1
display,1
excellent,1
camera,1
good,1
year,1
battery,1
life,1
also,1
great,1
protects,1
phone,1
sides,1
clear,1
skype,1
calls,1
long,1
battery,1
life,1
long,1
range,1
great,1
hands,1
free,1
device,1
even,1
take,1
self,1
portraits,1
outside,1
exterior,1
display,1
cool,1
trying,1
many,1
many,1
handsfree,1
gadgets,1
one,1
finally,1
works,1
well,1
magical,1
help,1
best,1
phone,1
market,1
worked,1
well,1
company,1
shipped,1
product,1
promptly,1
works,1
well,1
exactly,1
wanted,1
great,1
deal,1
excellent,1
product,1
satisfied,1
purchase,1
highly,1
recommend,1
encourage,1
people,1
give,1
try,1
better,1
youd,1
expect,1
great,1
product,1
price,1
sounds,1
good,1
reasonably,1
priced,1
effective,1
simple,1
prompt,1
service,1
excellent,1
product,1
price,1
pleased,1
headset,1
especially,1
love,1
long,1
battery,1
life,1
works,1
great,1
plantronics,1
bluetooth,1
excelent,1
buy,1
highly,1
recommend,1
device,1
everyone,1
jawbone,1
era,1
awesome,1
used,1
several,1
phone,1
two,1
years,1
one,1
best,1
awesome,1
new,1
look,1
fall,1
2000,1
price,1
good,1
im,1
using,1
iriver,1
spinn,1
case,1
fits,1
fine,1
overall,1
psyched,1
phone,1
appointments,1
contacts,1
gets,1
great,1
reception,1
every,1
thing,1
phone,1
work,1
perfectly,1
like,1
really,1
easy,1
sanyo,1
survived,1
dozens,1
drops,1
blacktop,1
without,1
ill,1
effect,1
fantastic,1
earphones,1
finds,1
cell,1
phone,1
right,1
away,1
enter,1
car,1
highly,1
recommend,1
modest,1
priced,1
cellular,1
phone,1
get,1
better,1
reception,1
clarity,1
phone,1
ive,1
awsome,1
device,1
works,1
great,1
used,1
talk,1
1,1
1,1
12,1
hours,1
battery,1
would,1
literally,1
drained,1
dying,1
restored,1
phone,1
like,1
new,1
performance,1
would,1
recommend,1
purchasing,1
jabra,1
jx10,1
series,1
2,1
works,1
flawlessly,1
moto,1
q,1
go,1
figure,1
searched,1
internet,1
found,1
one,1
best,1
value,1
happy,1
product,1
screen,1
size,1
big,1
key,1
pad,1
lit,1
well,1
enough,1
camera,1
quality,1
excellent,1
camera,1
phone,1
im,1
glad,1
found,1
product,1
amazon,1
hard,1
find,1
wasnt,1
high,1
priced,1
portable,1
works,1
colleague,1
get,1
great,1
receptiona,1
little,1
expensive,1
performance,1
great,1
timely,1
shipment,1
quality,1
product,1
nice,1
solid,1
keyboard,1
well,1
made,1
fits,1
surefire,1
gx2,1
perfectly,1
would,1
recommend,1
others,1
battery,1
works,1
great,1
looks,1
great,1
strong,1
tmobile,1
service,1
2,1
3,1
years,1
pretty,1
happy,1
great,1
software,1
motorolas,1
delivery,1
time,1
easy,1
use,1
holds,1
charge,1
long,1
time,1
reasonably,1
comfortable,1
longwearing,1
conditions,1
quality,1
sound,1
tremendous,1
keyboard,1
really,1
worthwhile,1
usefulness,1
sturdy,1
enough,1
dont,1
expect,1
problems,1
charging,1
overnight,1
batteries,1
work,1
great,1
wont,1
regret,1
love,1
phone,1
pda,1
rocks,1
super,1
charged,1
use,1
small,1
hybrid,1
palmtopcameracellphone,1
excels,1
roles,1
would,1
definitely,1
recommend,1
jabra,1
bt250v,1
looking,1
comfort,1
clarity,1
great,1
price,1
verizon,1
2,1
years,1
ago,1
really,1
liked,1
service,1
works,1
described,1
save,1
money,1
ive,1
item,1
11,1
months,1
well,1
im,1
satisfied,1
bose,1
noise,1
cancelling,1
amazing,1
important,1
nyc,1
commuter,1
battery,1
excellent,1
bargain,1
wear,1
glasses,1
fits,1
fine,1
greatno,1
problems,1
frog,1
phone,1
charm,1
adorable,1
eye,1
catching,1
sound,1
clear,1
people,1
talk,1
amazed,1
quality,1
got,1
aluminum,1
case,1
new,1
palm,1
vx,1
worked,1
really,1
wellit,1
protected,1
handheld,1
perfectly,1
far,1
good,1
product,1
well,1
made,1
mobile,1
phone,1
tools,1
must,1
impressed,1
job,1
motorola,1
sturdiness,1
phone,1
received,1
orders,1
well,1
within,1
shipping,1
timeframe,1
everything,1
good,1
working,1
order,1
overall,1
excited,1
source,1
phone,1
sturdy,1
waterproof,1
thanks,1
amazon,1
things,1
need,1
good,1
price,1
ended,1
sliding,1
edge,1
pants,1
back,1
pockets,1
instead,1
go,1
store,1
bought,1
new,1
nokia,1
phone,1
working,1
great,1
works,1
great,1
noise,1
shield,1
incrediable,1
razr,1
battery,1
good,1
buy,1
keep,1
good,1
work,1
amazon,1
great,1
case,1
price,1
bluetooth,1
range,1
good,1
days,1
ago,1
left,1
phone,1
trunk,1
got,1
call,1
carried,1
conversation,1
without,1
hitch,1
small,1
sleek,1
impressive,1
looking,1
practical,1
setup,1
ample,1
storage,1
place,1
eargels,1
channel,1
sound,1
directly,1
ear,1
seem,1
increase,1
sound,1
volume,1
clarity,1
glad,1
purchased,1
shifting,1
bubbling,1
peeling,1
even,1
scratch,1
nothingi,1
couldnt,1
happier,1
new,1
one,1
droid,1
jabra,1
earset,1
happy,1
sound,1
quality,1
especially,1
outgoing,1
better,1
love,1
camera,1
really,1
pretty,1
good,1
quality,1
thank,1
great,1
service,1
total,1
package,1
seller,1
understanding,1
patient,1
would,1
definitely,1
buy,1
give,1
wirefly,1
1,1
stari,1
contact,1
cingularatt,1
inform,1
practice,1
great,1
product,1
price,1
purchased,1
family,1
friends,1
enjoy,1
clarity,1
ease,1
use,1
virgin,1
wireless,1
rocks,1
cheap,1
little,1
phone,1
im,1
quite,1
satisfied,1
purchase,1
great,1
new,1
packaged,1
nice,1
works,1
good,1
problems,1
came,1
less,1
time,1
expected,1
great,1
product,1
fixes,1
problems,1
happy,1
ive,1
trouble,1
accessing,1
internet,1
downloading,1
ringtones,1
performing,1
functions,1
everything,1
description,1
said,1
would,1
works,1
great,1
car,1
charger,1
especially,1
plug,1
two,1
adapters,1
time,1
plays,1
louder,1
speaker,1
size,1
price,1
low,1
would,1
think,1
quality,1
lacking,1
however,1
better,1
expected,1
battery,1
holding,1
well,1
linked,1
phone,1
without,1
effort,1
cool,1
easy,1
use,1
better,1
new,1
pretty,1
good,1
product,1
great,1
phone,1
price,1
amazon,1
excellent,1
product,1
would,1
highly,1
recommend,1
research,1
development,1
division,1
obviously,1
knows,1
theyre,1
phones,1
working,1
fine,1
happy,1
product,1
overall,1
would,1
recommend,1
phone,1
new,1
walkman,1
fits,1
ear,1
well,1
comfortable,1
clipping,1
belt,1
deffinitely,1
make,1
feel,1
like,1
50,1
cents,1
upandcoming,1
like,1
design,1
look,1
jabra,1
behing,1
ear,1
headsets,1
5020,1
pretty,1
comfortible,1
wear,1
24,1
hours,1
day,1
without,1
pain,1
ear,1
amazed,1
quick,1
arrival,1
two,1
original,1
lg,1
cell,1
phone,1
batteries,1
fraction,1
price,1
worst,1
phone,1
samsungcrap,1
crappy,1
samsung,1
e715,1
worst,1
ever,1
seeen,1
worked,1
well,1
paired,1
treo,1
700w,1
skype,1
headset,1
pc,1
using,1
usb,1
bluetooth,1
transceiver,1
great,1
product,1
sure,1
beats,1
using,1
fingers,1
cases,1
ive,1
tried,1
normally,1
fall,1
apart,1
months,1
one,1
seems,1
long,1
haul,1
recommend,1
igo,1
anyone,1
different,1
brand,1
cell,1
phonesmp3,1
players,1
family,1
posted,1
detailed,1
comments,1
grey,1
black,1
phone,1
fire,1
red,1
great,1
color,1
problem,1
item,1
would,1
order,1
needed,1
software,1
great,1
job,1
could,1
also,1
make,1
ringtones,1
form,1
existing,1
cds,1
without,1
internet,1
connection,1
im,1
surprised,1
good,1
quality,1
car,1
charger,1
theres,1
much,1
reviews,1
fabulous,1
used,1
bitpim,1
free,1
program,1
find,1
internetto,1
transfer,1
data,1
phonethe,1
price,1
cable,1
excellent,1
windresistant,1
last,1
forever,1
overly,1
expensive,1
replaceeasy,1
operate,1
sound,1
much,1
better,1
others,1
tried,1
phone,1
sturdy,1
nokia,1
bar,1
phones,1
great,1
phone,1
im,1
pleased,1
found,1
product,1
easy,1
set,1
use,1
ear,1
loop,1
needed,1
tiny,1
sound,1
great,1
handsfree,1
part,1
works,1
fine,1
car,1
tries,1
download,1
address,1
book,1
treo,1
rebootsoverall,1
still,1
rate,1
device,1
high,1
im,1
happy,1
purchase,1
good,1
quality,1
low,1
price,1
love,1
look,1
feel,1
samsung,1
flipphones,1
welldesigned,1
sharp,1
blue,1
nice,1
color,1
everything,1
nice,1
sound,1
much,1
less,1
jawbone,1
going,1
replace,1
setup,1
went,1
smoothly,1
well,1
made,1
easy,1
access,1
phone,1
handy,1
detachable,1
belt,1
clip,1
works,1
fine,1
motorola,1
325,1
cellphone,1
lot,1
better,1
wornout,1
battery,1
volume,1
ringer,1
real,1
good,1
choices,1
loud,1
love,1
ringtones,1
upbeat,1
easy,1
pair,1
samsung,1
cell,1
works,1
well,1
clear,1
crisp,1
sound,1
use,1
smallest,1
earpieces,1
provided,1
stays,1
pretty,1
well,1
phone,1
also,1
take,1
great,1
pictures,1
even,1
video,1
clips,1
ears,1
occupied,1
background,1
distracting,1
comfortable,1
fit,1
need,1
headset,1
comfortable,1
least,1
hour,1
time,1
entire,1
day,1
cant,1
beat,1
price,1
comes,1
strong,1
light,1
use,1
light,1
camera,1
shots,1
even,1
flash,1
sos,1
signals,1
seriously,1
lightweight,1
works,1
well,1
love,1
cable,1
allows,1
connect,1
miniusb,1
device,1
pc,1
cool,1
cases,1
open,1
allowing,1
screen,1
get,1
scratched,1
appears,1
actually,1
outperform,1
original,1
battery,1
china,1
came,1
v325i,1
jabra,1
ear,1
gels,1
r,1
best,1
quit,1
working,1
id,1
used,1
18,1
months,1
purchased,1
another,1
one,1
best,1
headset,1
ive,1
ever,1
owned,1
great,1
phone,1
good,1
value,1
works,1
fine,1
power,1
via,1
usb,1
car,1
wall,1
outlet,1
phone,1
doesnt,1
slide,1
around,1
car,1
grip,1
prevents,1
phone,1
slipping,1
hand,1
simply,1
best,1
bluetooth,1
headset,1
sound,1
quality,1
span,1
hour,1
two,1
people,1
exclaim,1
whoa,1
new,1
phone,1
tv,1
always,1
used,1
corded,1
headsets,1
freedom,1
wireless,1
helpful,1
case,1
passed,1
one,1
year,1
mark,1
shows,1
signs,1
wear,1
100,1
functional,1
leather,1
nice,1
soft,1
fit,1
tight,1
cut,1
face,1
good,1
shape,1
everything,1
need,1
couldnt,1
ask,1
product,1
great,1
makes,1
working,1
lot,1
easier,1
go,1
copier,1
waiting,1
hold,1
something,1
tmobile,1
best,1
customer,1
service,1
anywhere,1
arrived,1
quickly,1
much,1
less,1
expensive,1
others,1
sold,1
provides,1
good,1
protection,1
looks,1
classy,1
krussel,1
always,1
good,1
tracfonewebsite,1
user,1
friendly,1
makes,1
easy,1
toactivate,1
etc,1
design,1
good4,1
great,1
reception,1
time,1
would,1
highly,1
recommend,1
product,1
fantastic,1
buy,1
get,1
whatever,1
next,1
phone,1
blueant,1
supertooth,1
handsfree,1
phone,1
speaker,1
awesome,1
item,1
arrived,1
quickly,1
works,1
great,1
metro,1
pcs,1
samsung,1
schr450,1
slider,1
phone,1
sony,1
premium,1
sound,1
ear,1
plugs,1
light,1
plenty,1
battery,1
capacity,1
confortable,1
wear,1
somewhat,1
extended,1
periods,1
time,1
blue,1
ant,1
easy,1
use,1
cheap,1
hey,1
works,1
pleasantly,1
suprised,1
given,1
low,1
cost,1
item,1
convenient,1
simple,1
use,1
gets,1
job,1
done,1
makes,1
car,1
ride,1
much,1
smoother,1
sound,1
quality,1
excellent,1
well,1
best,1
headset,1
used,1
around,1
years,1
carries,1
highest,1
quality,1
antiglare,1
screen,1
protector,1
found,1
date,1
wanted,1
really,1
wanted,1
plantronics,1
510,1
right,1
one,1
many,1
issues,1
methe,1
good,1
great,1
product,1
crisp,1
clear,1
first,1
charge,1
kept,1
going,1
dead,1
12,1
minutes,1
reception,1
generally,1
good,1
excellent,1
sound,1
battery,1
life,1
inconspicuous,1
boot,1
great,1
bluetooth,1
highly,1
recommend,1
case,1
worthwhile,1
great,1
deal,1
simple,1
use,1
like,1
great,1
tool,1
entertainment,1
communication,1
data,1
managementoh,1
sure,1
use,1
activesync,1
42,1
optimal,1
data,1
synchronization,1
results,1
2,1
cases,1
would,1
order,1
another,1
great,1
phone,1
bought,1
battery,1
coupon,1
amazon,1
im,1
happy,1
purchase,1
perfect,1
ps3,1
five,1
star,1
plus,1
plus,1
good,1
quality,1
bargain,1
bought,1
bought,1
cheapy,1
big,1
lots,1
sounded,1
awful,1
people,1
end,1
couldnt,1
hear,1
good,1
works,1
fine,1
price,1
great,1
deal,1
great,1
price,1
yes,1
shiny,1
front,1
side,1
love,1
reception,1
headset,1
excellent,1
2,1
thumbs,1
seller,1
verizon,1
lg,1
phone,1
work,1
well,1
together,1
good,1
reception,1
range,1
exceeds,1
20,1
feet,1
line,1
sight,1
1,1
works,1
2,1
comfortable,1
battery,1
chargelife,1
quite,1
long,1
jabra,1
eargels,1
fit,1
ears,1
well,1
product,1
exactly,1
described,1
gets,1
signal,1
verizon,1
phones,1
wont,1
would,1
recommend,1
plan,1
ordering,1
said,1
phone,1
camera,1
nice,1
many,1
cool,1
effects,1
play,1
video,1
decent,1
well,1
satisfied,1
cell,1
phone,1
day,1
one,1
keep,1
getting,1
better,1
better,1
third,1
one,1
ive,1
numerous,1
palms,1
shipping,1
time,1
also,1
quick,1
good,1
case,1
really,1
good,1
product,1
looks,1
nice,1
excellent,1
tool,1
especially,1
paired,1
phones,1
autoanswer,1
read,1
others,1
reviews,1
havent,1
problem,1
comfortable,1
hand,1
works,1
far,1
worked,1
like,1
charm,1
weeks,1
far,1
good,1
case,1
best,1
part,1
download,1
pictures,1
laptop,1
using,1
ir,1
even,1
send,1
pictures,1
laptop,1
phone,1
would,1
recommend,1
item,1
choice,1
headset,1
yearsgreat,1
sound,1
good,1
volume,1
good,1
noise,1
cancellation,1
nice,1
case,1
feels,1
good,1
hands,1
really,1
good,1
far,1
probably,1
best,1
bt,1
headset,1
ever,1
works,1
fine,1
received,1
headset,1
good,1
time,1
happy,1
pleased,1
see,1
could,1
replace,1
well,1
travled,1
swivel,1
holster,1
blackberry,1
flip,1
sister,1
one,1
also,1
loves,1
good,1
quality,1
excellent,1
dualpurpose,1
headset,1
excellent,1
work,1
listening,1
music,1
cingular,1
8125,1
seems,1
completely,1
secure,1
holding,1
belt,1
keeping,1
iphone,1
inside,1
good,1
thing,1
fits,1
comfortably,1
small,1
ears,1
pairing,1
iphone,1
could,1
happier,1
far,1
best,1
headset,1
ever,1
loudglad,1
say,1
plantronics,1
510,1
maintains,1
flawless,1
connection,1
cell,1
static,1
normal,1
use,1
fits,1
comfortably,1
came,1
three,1
sizes,1
earbud,1
tips,1
excellent,1
product,1
price,1
quite,1
comfortable,1
ear,1
great,1
phone,1
pairing,1
two,1
devices,1
easy,1
barely,1
took,1
couple,1
minutes,1
started,1
making,1
calls,1
voice,1
dialing,1
feature,1
cutouts,1
buttons,1
placed,1
perfectly,1
love,1
able,1
use,1
one,1
headset,1
landline,1
cell,1
despite,1
flaws,1
case,1
exceptional,1
quality,1
well,1
worth,1
additional,1
costs,1
owning,1
official,1
oem,1
product,1
hear,1
im,1
driving,1
car,1
usually,1
dont,1
even,1
put,1
loudest,1
setting,1
seller,1
shipped,1
quickly,1
much,1
cheaper,1
competitors,1
good,1
show,1
samsung,1
bought,1
10,1
saved,1
alot,1
money,1
leopard,1
print,1
wonderfully,1
wild,1
works,1
much,1
better,1
hard,1
plastic,1
cases,1
happy,1
far,1
cool,1
phone,1
works,1
good,1
motorola,1
finally,1
got,1
voice,1
quality,1
bluetooth,1
headset,1
right,1
great,1
would,1
really,1
recommend,1
get,1
extra,1
minutes,1
carry,1
call,1
get,1
cut,1
headset,1
fulfills,1
requirements,1
happy,1
purchase,1
logitech,1
bluetooth,1
headset,1
10,1
like,1
fact,1
rests,1
lightly,1
ear,1
rather,1
inside,1
lot,1
websites,1
rating,1
good,1
phone,1
tried,1
cables,1
computer,1
ipod,1
works,1
fine,1
easy,1
turn,1
car,1
volume,1
controls,1
quite,1
accessable,1
mine,1
year,1
christmas,1
bought,1
rest,1
family,1
otherwise,1
easy,1
install,1
use,1
clear,1
sound,1
nice,1
leather,1
joy,1
use,1
satisifed,1
phone,1
get,1
2005,1
bought,1
s710a,1
say,1
wow,1
reading,1
specs,1
alone,1
makes,1
say,1
wow,1
love,1
great,1
armband,1
really,1
like,1
product,1
motorola,1
allot,1
clearer,1
ear,1
piece,1
mic,1
exchanged,1
sony,1
ericson,1
z500a,1
im,1
pretty,1
happy,1
decision,1
impressed,1
price,1
cases,1
also,1
makes,1
easier,1
hold,1
use,1
product,1
motor,1
control,1
center,1
lot,1
high,1
voltage,1
humming,1
equipment,1
works,1
great,1
pretty,1
easy,1
beautiful,1
styling,1
though,1
excellent,1
product,1
best,1
charger,1
seen,1
market,1
yet,1
sweetest,1
phone,1
oh,1
charger,1
seems,1
work,1
fine,1
fits,1
securely,1
ear,1
hook,1
even,1
need,1
used,1
sound,1
better,1
directed,1
ear,1
canal,1
